{
    "name": "いいね、リモーション、コメント",
    "description": "投稿作成api.",
    "protocol": "rest",
    "basePath": "http://160.16.100.24",
    "publicPath": "",
    "auth": {
        "key": {
            "param": "key"
        }
    },
    "headers": {
        "Accept": "application/json"
    },
    "resources": {
        "リアクション：いいね、リモーション、コメント": {
            "methods": {
                "SuccessLike": {
                    "name": "指定した投稿にいいねする",
                    "path": "/like",
                    "httpMethod": "POST",
                    "description": "URLフォーマット：/like?account_id=＜アカウントID＞&access_token=＜アクセストークン＞",
                    "parameters": {
                        "account_id": {
                            "type": "string",
                            "required": true,
                            "default": "1f7a4169-4c48-4a83-94de-db4de4876f341448794181613",
                            "description": "アカウントID：必須"
                        },
                        "access_token": {
                            "type": "string",
                            "required": true,
                            "default": "ee9e86b4-f857-45a2-bcda-4805c64fef4d1448794191400",
                            "description": "アクセストークン：必須"
                        },
                        "base_post_id": {
                            "type": "string",
                            "required": true,
                            "default": "0dd1e257-ad41-4b97-a0df-9494930090cc1449064646527",
                            "description": "いいねする対象の投稿ID：必須"
                        }
                    }
                },
                "SuccessDeleteLike": {
                    "name": "指定した投稿のいいねを取り消す",
                    "path": "/cancel_like",
                    "httpMethod": "POST",
                    "description": "URLフォーマット：/like?account_id=＜アカウントID＞&access_token=＜アクセストークン＞",
                    "parameters": {
                        "account_id": {
                            "type": "string",
                            "required": true,
                            "default": "1f7a4169-4c48-4a83-94de-db4de4876f341448794181613",
                            "description": "アカウントID：必須"
                        },
                        "access_token": {
                            "type": "string",
                            "required": true,
                            "default": "ee9e86b4-f857-45a2-bcda-4805c64fef4d1448794191400",
                            "description": "アクセストークン：必須"
                        },
                        "base_post_id": {
                            "type": "string",
                            "required": true,
                            "default": "0dd1e257-ad41-4b97-a0df-9494930090cc1449064646527",
                            "description": "いいねする対象の投稿ID：必須"
                        }
                    }
                },		
                "SuccessReMotion": {
                    "name": "指定した投稿にリモーションする",
                    "path": "/re_motion",
                    "httpMethod": "POST",
                    "description": "URLフォーマット：/re_motion?account_id=＜アカウントID＞&access_token=＜アクセストークン＞",
                    "parameters": {
                        "account_id": {
                            "type": "string",
                            "required": true,
                            "default": "1f7a4169-4c48-4a83-94de-db4de4876f341448794181613",
                            "description": "アカウントID：必須"
                        },
                        "access_token": {
                            "type": "string",
                            "required": true,
                            "default": "ee9e86b4-f857-45a2-bcda-4805c64fef4d1448794191400",
                            "description": "アクセストークン：必須"
                        },
                        "base_post_id": {
                            "type": "string",
                            "required": true,
                            "default": "0dd1e257-ad41-4b97-a0df-9494930090cc1449064646527",
                            "description": "リモーションする対象の投稿ID：必須"
                        },
                        "add_tags": {
                            "type": "string",
                            "required": true,
                            "default": "tag01 tag022",
                            "description": "リモーション後の投稿に追加するタグ：任意"
                        }
                    }
                },
                "SuccessComment": {
                    "name": "指定した投稿にコメントする",
                    "path": "/comment",
                    "httpMethod": "POST",
                    "description": "URLフォーマット：/comment?account_id=＜アカウントID＞&access_token=＜アクセストークン＞",
                    "parameters": {
                        "account_id": {
                            "type": "string",
                            "required": true,
                            "default": "1f7a4169-4c48-4a83-94de-db4de4876f341448794181613",
                            "description": "アカウントID：必須"
                        },
                        "access_token": {
                            "type": "string",
                            "required": true,
                            "default": "ee9e86b4-f857-45a2-bcda-4805c64fef4d1448794191400",
                            "description": "アクセストークン：必須"
                        },
                        "base_post_id": {
                            "type": "string",
                            "required": true,
                            "default": "0dd1e257-ad41-4b97-a0df-9494930090cc1449064646527",
                            "description": "コメントする対象の投稿ID：必須"
                        },
                        "comment": {
                            "type": "string",
                            "required": true,
                            "default": "投稿のコメントテスト（きれいな動画）",
                            "description": "対象の投稿へのコメント：必須"
                        }
                    }
                }
            }
        }
    }
}
