{
    "name": "プロフィール画面",
    "description": "アカウント情報取得api.",
    "protocol": "rest",
    "basePath": "http://160.16.100.24",
    "publicPath": "/account/recommend_account",
    "auth": {
        "key": {
            "param": "key"
        }
    },
    "headers": {
        "Accept": "application/json"
    },
    "resources": {
        "アカウント情報の取得": {
            "methods": {
                "Success": {
                    "name": "オススメユーザーを取得",
                    "path": "",
                    "httpMethod": "GET",
                    "description": "URLフォーマット：/account/recommend_account?account_id=<アカウントID>&access_token=＜アクセストークン＞<br>アクセストークン：必須",
                    "parameters": {
                        "account_id": {
                            "type": "string",
                            "required": true,
                            "default": "1f7a4169-4c48-4a83-94de-db4de4876f341448794181613",
                            "description": "アカウントID：必須"
                        },
                        "access_token": {
                            "type": "string",
                            "required": true,
                            "default": "ee9e86b4-f857-45a2-bcda-4805c64fef4d1448794191400",
                            "description": "アクセストークン：必須"
                        }
                    }
                }
            }
        }
    }
}
