{
    "name": "管理画面用API",
    "description": "管理画面用api.",
    "protocol": "rest",
    "basePath": "http://160.16.100.24",
    "publicPath": "",
    "auth": {
        "key": {
            "param": "key"
        }
    },
    "headers": {
        "Accept": "application/json"
    },
    "resources": {
        "管理画面用API": {
            "methods": {
                "SuccessDeleteAccount": {
                    "name": "アカウントを削除する",
                    "path": "/delete/account",
                    "httpMethod": "POST",
                    "description": "URLフォーマット：/delete/account?master_token=＜管理者用アクセストークン＞",
                    "parameters": {
                        "master_token": {
                            "type": "string",
                            "required": true,
                            "default": "ee9e86b4-f857-45a2-bcda-4805c64fef4d1448794191400",
                            "description": "管理画面API操作用アクセストークン：必須"
                        },
                        "account_id": {
                            "type": "string",
                            "required": true,
                            "default": "",
                            "description": "削除対象のアカウントID：必須"
                        }
                    }
                },
                "SuccessDeleteComment": {
                    "name": "コメントを削除する",
                    "path": "/delete/comment",
                    "httpMethod": "POST",
                    "description": "URLフォーマット：/delete/comment?master_token=＜管理者用アクセストークン＞",
                    "parameters": {
                        "master_token": {
                            "type": "string",
                            "required": true,
                            "default": "ee9e86b4-f857-45a2-bcda-4805c64fef4d1448794191400",
                            "description": "管理画面API操作用アクセストークン：必須"
                        },
                        "post_id": {
                            "type": "string",
                            "required": true,
                            "default": "",
                            "description": "削除対象の投稿ID：必須"
                        },
                        "comment_id": {
                            "type": "string",
                            "required": true,
                            "default": "",
                            "description": "削除対象のコメントID：必須"
                        }			
                    }
                },
                "SuccessSearchByPostId": {
                    "name": "投稿IDからコメント一覧を取得",
                    "path": "/comments",
                    "httpMethod": "GET",
                    "description": "URLフォーマット：/comments?comment_search_type=PostId&account_id=＜アカウントID＞&access_token=＜アクセストークン＞&post_id=＜投稿ID＞",
                    "parameters": {
                        "master_token": {
                            "type": "string",
                            "required": true,
                            "default": "ee9e86b4-f857-45a2-bcda-4805c64fef4d1448794191400",
                            "description": "管理画面API操作用アクセストークン：必須"
                        },			
                        "comment_search_type": {
                            "type": "string",
                            "required": true,
                            "default": "PostId",
                            "description": "投稿IDからコメント一覧を取得したい場合は、comment_search_typeにPostIdを指定する：必須"
                        },
                        "post_id": {
                            "type": "string",
                            "required": true,
                            "default": "",
                            "description": "投稿ID：必須"
                        }			
                    }
                },
                "SuccessSearchByComment": {
                    "name": "コメントの内容からコメント一覧取得",
                    "path": "/comments",
                    "httpMethod": "GET",
                    "description": "URLフォーマット：/comments?comment_search_type=Comment&account_id=＜アカウントID＞&access_token=＜アクセストークン＞&comment=＜コメント内容＞",		    
                    "parameters": {
                        "master_token": {
                            "type": "string",
                            "required": true,
                            "default": "ee9e86b4-f857-45a2-bcda-4805c64fef4d1448794191400",
                            "description": "管理画面API操作用アクセストークン：必須"
                        },
                        "comment_search_type": {
                            "type": "string",
                            "required": true,
                            "default": "Comment",
                            "description": "コメントの内容のキーワードからコメント一覧を取得したい場合は、comment_search_typeにCommentを指定する：必須"
                        },
                        "comment": {
                            "type": "string",
                            "required": true,
                            "default": "",
                            "description": "検索するコメントのキーワード：必須"
                        }
		    }
                }
            }		
        }
    }
}
