
{
    "name": "Push通知関連で使用するAPI",
    "description": "push通知関連api.",
    "protocol": "rest",
    "basePath": "http://160.16.100.24",
    "publicPath": "",
    "auth": {
        "key": {
            "param": "key"
        }
    },
    "headers": {
        "Accept": "application/json"
    },
    "resources": {
        "デバイス情報登録API": {
            "methods": {
                "SuccessCreateDeviceInformation": {		
                    "name": "インフォメーションを作成する",
                    "path": "/device_information",
                    "httpMethod": "POST",
                    "description": "URLフォーマット：/device_information",
                    "parameters": {
                        "account_id": {
                            "type": "string",
                            "required": true,
                            "default": "1f7a4169-4c48-4a83-94de-db4de4876f341448794181613",
                            "description": "ログイン中のaccountId：必須"
                        },
                        "access_token": {
                            "type": "string",
                            "required": true,
                            "default": "ee9e86b4-f857-45a2-bcda-4805c64fef4d1448794191400",
                            "description": "アクセストークン：必須"
                        },
                        "device": {
                            "type": "string",
                            "required": true,
                            "default": "iOS",
                            "description": "デバイス名（iOS or Android）：必須"
                        },
                        "token": {
                            "type": "string",
                            "required": true,
                            "default": "secret token id",
                            "description": "トークン：必須"
                        }			
                    }
                }
            }		
        }
    }
}
